Alzheimer’s Deaths Models - Only Environmental
…
pollution_recipe %>% 
  prep(pollution_training) %>%
  juice()

## # A tibble: 112 x 12
##    annual_mean_co annual_mean_ozone annual_mean_pm10 annual_mean_so2
##             <dbl>             <dbl>            <dbl>           <dbl>
##  1        -1.34              1.82              1.19          -0.0642
##  2         0.0955           -0.0287           -0.414         -0.0642
##  3         0.0955           -0.0906            0.142         -0.0642
##  4         0.0955           -2.12             -0.141         -0.0642
##  5         0.0955            0.561            -1.05          -0.0642
##  6         0.0955           -0.150            -0.380         -0.0642
##  7        -0.553             1.84              1.55          -0.559 
##  8         0.0955            0.648            -1.06          -0.0642
##  9         1.36             -0.868            -0.801          0.924 
## 10        -0.0466           -0.666            -0.702          4.02  
## # ... with 102 more rows, and 8 more variables: annual_mean_no2 <dbl>,
## #   annual_mean_pb <dbl>, annual_mean_pm25 <dbl>, h2o_contam <dbl>,
## #   park_access <dbl>, pollution <dbl>, tree_canopy <dbl>, log_alzheimers <dbl>
…
pollution_lasso_tune %>% 
  select(id, .metrics) %>% 
  unnest(.metrics) %>% 
  filter(.metric == "rmse")

## # A tibble: 100 x 6
##    id     penalty .metric .estimator .estimate .config              
##    <chr>    <dbl> <chr>   <chr>          <dbl> <chr>                
##  1 Fold1 1   e-10 rmse    standard       0.124 Preprocessor1_Model01
##  2 Fold1 3.36e-10 rmse    standard       0.124 Preprocessor1_Model02
##  3 Fold1 1.13e- 9 rmse    standard       0.124 Preprocessor1_Model03
##  4 Fold1 3.79e- 9 rmse    standard       0.124 Preprocessor1_Model04
##  5 Fold1 1.27e- 8 rmse    standard       0.124 Preprocessor1_Model05
##  6 Fold1 4.28e- 8 rmse    standard       0.124 Preprocessor1_Model06
##  7 Fold1 1.44e- 7 rmse    standard       0.124 Preprocessor1_Model07
##  8 Fold1 4.83e- 7 rmse    standard       0.124 Preprocessor1_Model08
##  9 Fold1 1.62e- 6 rmse    standard       0.124 Preprocessor1_Model09
## 10 Fold1 5.46e- 6 rmse    standard       0.124 Preprocessor1_Model10
## # ... with 90 more rows
…
boost_recipe %>% 
  prep() %>% 
  juice() 

## # A tibble: 112 x 12
##    annual_mean_co annual_mean_ozone annual_mean_pm10 annual_mean_so2
##             <dbl>             <dbl>            <dbl>           <dbl>
##  1        -1.34              1.82              1.19          -0.0642
##  2         0.0955           -0.0287           -0.414         -0.0642
##  3         0.0955           -0.0906            0.142         -0.0642
##  4         0.0955           -2.12             -0.141         -0.0642
##  5         0.0955            0.561            -1.05          -0.0642
##  6         0.0955           -0.150            -0.380         -0.0642
##  7        -0.553             1.84              1.55          -0.559 
##  8         0.0955            0.648            -1.06          -0.0642
##  9         1.36             -0.868            -0.801          0.924 
## 10        -0.0466           -0.666            -0.702          4.02  
## # ... with 102 more rows, and 8 more variables: annual_mean_no2 <dbl>,
## #   annual_mean_pb <dbl>, annual_mean_pm25 <dbl>, h2o_contam <dbl>,
## #   park_access <dbl>, pollution <dbl>, tree_canopy <dbl>, log_alzheimers <dbl>
…
pollution_rfrecipe %>% 
  prep(pollution_training) %>%
  juice()

## # A tibble: 112 x 12
##    annual_mean_co annual_mean_ozone annual_mean_pm10 annual_mean_so2
##             <dbl>             <dbl>            <dbl>           <dbl>
##  1        -1.34              1.82              1.19          -0.0642
##  2         0.0955           -0.0287           -0.414         -0.0642
##  3         0.0955           -0.0906            0.142         -0.0642
##  4         0.0955           -2.12             -0.141         -0.0642
##  5         0.0955            0.561            -1.05          -0.0642
##  6         0.0955           -0.150            -0.380         -0.0642
##  7        -0.553             1.84              1.55          -0.559 
##  8         0.0955            0.648            -1.06          -0.0642
##  9         1.36             -0.868            -0.801          0.924 
## 10        -0.0466           -0.666            -0.702          4.02  
## # ... with 102 more rows, and 8 more variables: annual_mean_no2 <dbl>,
## #   annual_mean_pb <dbl>, annual_mean_pm25 <dbl>, h2o_contam <dbl>,
## #   park_access <dbl>, pollution <dbl>, tree_canopy <dbl>, log_alzheimers <dbl>
…
Stacking

pollution_stack <- 
  stacks() %>% 
  add_candidates(boost_tune) %>%
  add_candidates(pollution_lasso_tune) %>% 
  add_candidates(pollution_rfTUNE)

as_tibble(pollution_stack)

## # A tibble: 112 x 26
##    log_alzheimers boost_tune_1_01 boost_tune_1_03 boost_tune_1_04
##             <dbl>           <dbl>           <dbl>           <dbl>
##  1          -3.40             0.5           0.500           0.500
##  2          -3.34             0.5           0.500           0.500
##  3          -3.33             0.5           0.500           0.500
##  4          -3.23             0.5           0.500           0.500
##  5          -3.19             0.5           0.500           0.500
##  6          -3.37             0.5           0.500           0.500
##  7          -3.37             0.5           0.500           0.500
##  8          -3.39             0.5           0.500           0.500
##  9          -3.31             0.5           0.500           0.500
## 10          -3.31             0.5           0.500           0.500
## # ... with 102 more rows, and 22 more variables: boost_tune_1_05 <dbl>,
## #   boost_tune_1_06 <dbl>, boost_tune_1_07 <dbl>, boost_tune_1_08 <dbl>,
## #   boost_tune_1_09 <dbl>, boost_tune_1_10 <dbl>,
## #   pollution_lasso_tune_1_01 <dbl>, pollution_lasso_tune_1_13 <dbl>,
## #   pollution_lasso_tune_1_14 <dbl>, pollution_lasso_tune_1_15 <dbl>,
## #   pollution_lasso_tune_1_16 <dbl>, pollution_lasso_tune_1_17 <dbl>,
## #   pollution_lasso_tune_1_18 <dbl>, pollution_rfTUNE_1_1 <dbl>, ...
…
