Breat Cancer Surgerys - Environmental Only
…
pollution_recipe %>% 
  prep(pollution_training) %>%
  juice()

## # A tibble: 110 x 12
##    annual_mean_co annual_mean_ozone annual_mean_pm10 annual_mean_so2
##             <dbl>             <dbl>            <dbl>           <dbl>
##  1        -1.42              1.99              1.24           -0.170
##  2         0.122            -0.0177           -0.416          -0.170
##  3         0.122            -0.0849            0.159          -0.170
##  4         1.49             -0.930            -0.818           0.723
##  5         0.122             0.169            -0.952          -0.170
##  6         0.122            -0.0389           -0.432          -0.245
##  7         0.122            -0.0221           -0.134          -0.170
##  8         0.122             0.718            -1.08           -0.170
##  9        -0.760            -1.37             -1.38           -0.170
## 10        -0.0305           -0.710            -0.715           3.52 
## # ... with 100 more rows, and 8 more variables: annual_mean_no2 <dbl>,
## #   annual_mean_pb <dbl>, annual_mean_pm25 <dbl>, h2o_contam <dbl>,
## #   park_access <dbl>, pollution <dbl>, tree_canopy <dbl>, log_breast <dbl>
…
pollution_lasso_tune %>% 
  select(id, .metrics) %>% 
  unnest(.metrics) %>% 
  filter(.metric == "rmse")

## # A tibble: 100 x 6
##    id     penalty .metric .estimator .estimate .config              
##    <chr>    <dbl> <chr>   <chr>          <dbl> <chr>                
##  1 Fold1 1   e-10 rmse    standard       0.367 Preprocessor1_Model01
##  2 Fold1 3.36e-10 rmse    standard       0.367 Preprocessor1_Model02
##  3 Fold1 1.13e- 9 rmse    standard       0.367 Preprocessor1_Model03
##  4 Fold1 3.79e- 9 rmse    standard       0.367 Preprocessor1_Model04
##  5 Fold1 1.27e- 8 rmse    standard       0.367 Preprocessor1_Model05
##  6 Fold1 4.28e- 8 rmse    standard       0.367 Preprocessor1_Model06
##  7 Fold1 1.44e- 7 rmse    standard       0.367 Preprocessor1_Model07
##  8 Fold1 4.83e- 7 rmse    standard       0.367 Preprocessor1_Model08
##  9 Fold1 1.62e- 6 rmse    standard       0.367 Preprocessor1_Model09
## 10 Fold1 5.46e- 6 rmse    standard       0.367 Preprocessor1_Model10
## # ... with 90 more rows
…
boost_recipe %>% 
  prep() %>% 
  juice() 

## # A tibble: 110 x 12
##    annual_mean_co annual_mean_ozone annual_mean_pm10 annual_mean_so2
##             <dbl>             <dbl>            <dbl>           <dbl>
##  1        -1.42              1.99              1.24           -0.170
##  2         0.122            -0.0177           -0.416          -0.170
##  3         0.122            -0.0849            0.159          -0.170
##  4         1.49             -0.930            -0.818           0.723
##  5         0.122             0.169            -0.952          -0.170
##  6         0.122            -0.0389           -0.432          -0.245
##  7         0.122            -0.0221           -0.134          -0.170
##  8         0.122             0.718            -1.08           -0.170
##  9        -0.760            -1.37             -1.38           -0.170
## 10        -0.0305           -0.710            -0.715           3.52 
## # ... with 100 more rows, and 8 more variables: annual_mean_no2 <dbl>,
## #   annual_mean_pb <dbl>, annual_mean_pm25 <dbl>, h2o_contam <dbl>,
## #   park_access <dbl>, pollution <dbl>, tree_canopy <dbl>, log_breast <dbl>
…
pollution_rfrecipe %>% 
  prep(pollution_training) %>%
  juice()

## # A tibble: 110 x 12
##    annual_mean_co annual_mean_ozone annual_mean_pm10 annual_mean_so2
##             <dbl>             <dbl>            <dbl>           <dbl>
##  1        -1.42              1.99              1.24           -0.170
##  2         0.122            -0.0177           -0.416          -0.170
##  3         0.122            -0.0849            0.159          -0.170
##  4         1.49             -0.930            -0.818           0.723
##  5         0.122             0.169            -0.952          -0.170
##  6         0.122            -0.0389           -0.432          -0.245
##  7         0.122            -0.0221           -0.134          -0.170
##  8         0.122             0.718            -1.08           -0.170
##  9        -0.760            -1.37             -1.38           -0.170
## 10        -0.0305           -0.710            -0.715           3.52 
## # ... with 100 more rows, and 8 more variables: annual_mean_no2 <dbl>,
## #   annual_mean_pb <dbl>, annual_mean_pm25 <dbl>, h2o_contam <dbl>,
## #   park_access <dbl>, pollution <dbl>, tree_canopy <dbl>, log_breast <dbl>
…
Stacking

pollution_stack <- 
  stacks() %>% 
  add_candidates(boost_tune) %>%
  add_candidates(pollution_lasso_tune) %>% 
  add_candidates(pollution_rfTUNE)

as_tibble(pollution_stack)

## # A tibble: 110 x 27
##    log_breast boost_tune_1_01 boost_tune_1_03 boost_tune_1_04 boost_tune_1_05
##         <dbl>           <dbl>           <dbl>           <dbl>           <dbl>
##  1      -3.36             0.5           0.500           0.500           0.496
##  2      -3.25             0.5           0.500           0.500           0.496
##  3      -3.25             0.5           0.500           0.500           0.496
##  4      -3.05             0.5           0.500           0.500           0.496
##  5      -2.76             0.5           0.500           0.500           0.496
##  6      -3.04             0.5           0.500           0.500           0.496
##  7      -3.97             0.5           0.500           0.500           0.496
##  8      -4.66             0.5           0.500           0.500           0.496
##  9      -3.03             0.5           0.500           0.500           0.496
## 10      -3.19             0.5           0.500           0.500           0.496
## # ... with 100 more rows, and 22 more variables: boost_tune_1_06 <dbl>,
## #   boost_tune_1_07 <dbl>, boost_tune_1_08 <dbl>, boost_tune_1_09 <dbl>,
## #   boost_tune_1_10 <dbl>, pollution_lasso_tune_1_01 <dbl>,
## #   pollution_lasso_tune_1_13 <dbl>, pollution_lasso_tune_1_14 <dbl>,
## #   pollution_lasso_tune_1_15 <dbl>, pollution_lasso_tune_1_16 <dbl>,
## #   pollution_lasso_tune_1_17 <dbl>, pollution_lasso_tune_1_18 <dbl>,
## #   pollution_lasso_tune_1_19 <dbl>, pollution_rfTUNE_1_1 <dbl>, ...
…
